Reproducible First Analysis of PISA Data
…
#now in table format
data %>%
  group_by(CNT, missing_items) %>%
  summarise(frequency = n() / 23, .groups = "drop")

# A tibble: 23 × 3
   CNT           missing_items frequency
   <chr+lbl>             <int>     <dbl>
 1 DEU [Germany]             0        81
 2 DEU [Germany]             1        42
 3 DEU [Germany]             2        23
 4 DEU [Germany]             3        12
 5 DEU [Germany]             4        15
 6 DEU [Germany]             5        11
 7 DEU [Germany]             6        11
 8 DEU [Germany]             7         5
 9 DEU [Germany]             8         2
10 DEU [Germany]            10         3
# ℹ 13 more rows
…
